<?xml version="1.0" encoding="UTF-8" standalone="no"?>
<!-- Created with Inkscape (http://www.inkscape.org/) -->

<svg
   xmlns:dc="http://purl.org/dc/elements/1.1/"
   xmlns:cc="http://creativecommons.org/ns#"
   xmlns:rdf="http://www.w3.org/1999/02/22-rdf-syntax-ns#"
   xmlns:svg="http://www.w3.org/2000/svg"
   xmlns="http://www.w3.org/2000/svg"
   xmlns:sodipodi="http://sodipodi.sourceforge.net/DTD/sodipodi-0.dtd"
   xmlns:inkscape="http://www.inkscape.org/namespaces/inkscape"
   width="297mm"
   height="210mm"
   viewBox="0 0 297 210"
   version="1.1">
  <title
     id="title4039">A4 leaflet 3-fold Roll</title>
  <sodipodi:namedview
     id="base"
     pagecolor="#ffffff"
     bordercolor="#666666"
     borderopacity="1.0"
     inkscape:pageopacity="0.0"
     inkscape:pageshadow="2"
     inkscape:zoom="0.2"
     inkscape:cx="560"
     inkscape:cy="400"
     inkscape:document-units="mm"
     inkscape:current-layer="layer1"
     showgrid="true"
     units="mm"
     showguides="true"
     inkscape:guide-bbox="true"
     inkscape:snap-page="true"
     inkscape:snap-bbox="false"
     inkscape:snap-text-baseline="true">
    <inkscape:grid
       units="mm"
       spacingy="1"
       spacingx="1"
       id="grid4472"
       type="xygrid"
       originx="0"
       originy="0"
       empspacing="5"
       dotted="true" />
    <sodipodi:guide
       position="197,180"
       orientation="-1,0"
       id="guide7767"
       inkscape:locked="false"
       inkscape:label="99 mm for the Back cover"
       inkscape:color="rgb(0,0,255)" />
    <sodipodi:guide
       position="98,180"
       orientation="-1,0"
       id="guide7769"
       inkscape:locked="false"
       inkscape:label="98 mm for Flap outer"
       inkscape:color="rgb(0,0,255)" />
    <sodipodi:guide
       position="100,30"
       orientation="1,0"
       id="guide7850"
       inkscape:locked="false"
       inkscape:label="100 mm for Inside left"
       inkscape:color="rgb(255,0,0)" />
    <sodipodi:guide
       position="199,30"
       orientation="1,0"
       id="guide7852"
       inkscape:locked="false"
       inkscape:label="99 mm for Inside center"
       inkscape:color="rgb(255,0,0)" />
    <sodipodi:guide
       position="297,30"
       orientation="1,0"
       id="guide7854"
       inkscape:locked="false"
       inkscape:label="98 mm for Inside right"
       inkscape:color="rgb(255,0,0)" />
    <sodipodi:guide
       position="297,180"
       orientation="-1,0"
       id="guide7856"
       inkscape:locked="false"
       inkscape:label="100 mm for Front cover"
       inkscape:color="rgb(0,0,255)" />
  </sodipodi:namedview>
  <defs
     id="defs2" />
  <metadata
     id="metadata5">
    <rdf:RDF>
      <cc:Work
         rdf:about="">
        <dc:format>image/svg+xml</dc:format>
        <dc:type
           rdf:resource="http://purl.org/dc/dcmitype/StillImage" />
        <dc:title>A4 leaflet 3-fold Roll</dc:title>
        <dc:date>2018-02-07</dc:date>
        <dc:creator>
          <cc:Agent>
            <dc:title>Mihaela Jurković</dc:title>
          </cc:Agent>
        </dc:creator>
        <dc:rights>
          <cc:Agent>
            <dc:title />
          </cc:Agent>
        </dc:rights>
        <dc:source />
        <dc:language>English</dc:language>
        <cc:license
           rdf:resource="http://creativecommons.org/publicdomain/zero/1.0/" />
        <dc:subject>
          <rdf:Bag>
            <rdf:li>A4 leaflet 3-fold</rdf:li>
          </rdf:Bag>
        </dc:subject>
        <dc:description>An A4 page 3-fold Roll template with guides, print marks, and marked leaflet pages. Inner and outer page contents go into their respective Layers. </dc:description>
      </cc:Work>
      <cc:License
         rdf:about="http://creativecommons.org/publicdomain/zero/1.0/">
        <cc:permits
           rdf:resource="http://creativecommons.org/ns#Reproduction" />
        <cc:permits
           rdf:resource="http://creativecommons.org/ns#Distribution" />
        <cc:permits
           rdf:resource="http://creativecommons.org/ns#DerivativeWorks" />
      </cc:License>
    </rdf:RDF>
  </metadata>
  <g
     transform="translate(0,-87)"
     id="layer1"
     inkscape:groupmode="layer"
     inkscape:label="Outer"
     style="display:inline">
    <text
       id="text7783"
       y="182"
       x="247"
       xml:space="preserve"><tspan
         style="font-style:normal;font-variant:normal;font-weight:normal;font-stretch:normal;font-size:10px;line-height:11px;font-family:sans-serif;-inkscape-font-specification:'sans-serif, Normal';font-variant-ligatures:normal;font-variant-caps:normal;font-variant-numeric:normal;font-feature-settings:normal;text-align:center;writing-mode:lr-tb;text-anchor:middle;fill:#0000ff;stroke:none;stroke-width:0;"
         y="182"
         x="247"
         id="tspan7779"
         sodipodi:role="line">page 1</tspan><tspan
         id="tspan7781"
         style="font-style:normal;font-variant:normal;font-weight:normal;font-stretch:normal;font-size:10px;line-height:11px;font-family:sans-serif;-inkscape-font-specification:'sans-serif, Normal';font-variant-ligatures:normal;font-variant-caps:normal;font-variant-numeric:normal;font-feature-settings:normal;text-align:center;writing-mode:lr-tb;text-anchor:middle;fill:#0000ff;stroke:none;stroke-width:0;"
         y="198"
         x="247"
         sodipodi:role="line">Front cover</tspan></text>
    <text
       id="text7789"
       y="182"
       x="147"
       xml:space="preserve"><tspan
         style="font-style:normal;font-variant:normal;font-weight:normal;font-stretch:normal;font-size:10px;line-height:11px;font-family:sans-serif;-inkscape-font-specification:'sans-serif, Normal';font-variant-ligatures:normal;font-variant-caps:normal;font-variant-numeric:normal;font-feature-settings:normal;text-align:center;writing-mode:lr-tb;text-anchor:middle;fill:#0000ff;stroke:none;stroke-width:0;"
         y="182"
         x="147"
         id="tspan7785"
         sodipodi:role="line">page 6</tspan><tspan
         id="tspan7787"
         style="font-style:normal;font-variant:normal;font-weight:normal;font-stretch:normal;font-size:10px;line-height:11px;font-family:sans-serif;-inkscape-font-specification:'sans-serif, Normal';font-variant-ligatures:normal;font-variant-caps:normal;font-variant-numeric:normal;font-feature-settings:normal;text-align:center;writing-mode:lr-tb;text-anchor:middle;fill:#0000ff;stroke:none;stroke-width:0;"
         y="198"
         x="147"
         sodipodi:role="line">Back cover</tspan></text>
    <text
       xml:space="preserve"
       x="50"
       y="182"
       id="text7775"><tspan
         sodipodi:role="line"
         id="tspan7773"
         x="50"
         y="182"
         style="font-style:normal;font-variant:normal;font-weight:normal;font-stretch:normal;font-size:10px;line-height:11px;font-family:sans-serif;-inkscape-font-specification:'sans-serif, Normal';font-variant-ligatures:normal;font-variant-caps:normal;font-variant-numeric:normal;font-feature-settings:normal;text-align:center;writing-mode:lr-tb;text-anchor:middle;fill:#0000ff;stroke:none;stroke-width:0;">page 5</tspan><tspan
         sodipodi:role="line"
         x="50"
         y="198"
         style="font-style:normal;font-variant:normal;font-weight:normal;font-stretch:normal;font-size:10px;line-height:11px;font-family:sans-serif;-inkscape-font-specification:'sans-serif, Normal';font-variant-ligatures:normal;font-variant-caps:normal;font-variant-numeric:normal;font-feature-settings:normal;text-align:center;writing-mode:lr-tb;text-anchor:middle;fill:#0000ff;stroke:none;stroke-width:0;"
         id="tspan7777">Flap outer</tspan></text>
  </g>
  <g
     inkscape:groupmode="layer"
     id="layer2"
     inkscape:label="Inner"
     style="display:none">
    <text
       transform="translate(0,-87)"
       xml:space="preserve"
       x="247"
       y="182"
       id="text7796"><tspan
         sodipodi:role="line"
         id="tspan7792"
         x="247"
         y="182"
         style="font-style:normal;font-variant:normal;font-weight:normal;font-stretch:normal;font-size:10px;line-height:11px;font-family:sans-serif;-inkscape-font-specification:'sans-serif, Normal';font-variant-ligatures:normal;font-variant-caps:normal;font-variant-numeric:normal;font-feature-settings:normal;text-align:center;writing-mode:lr-tb;text-anchor:middle;fill:#d40000;stroke:none;stroke-width:0;">page 4</tspan><tspan
         sodipodi:role="line"
         x="247"
         y="198"
         style="font-style:normal;font-variant:normal;font-weight:normal;font-stretch:normal;font-size:10px;line-height:11px;font-family:sans-serif;-inkscape-font-specification:'sans-serif, Normal';font-variant-ligatures:normal;font-variant-caps:normal;font-variant-numeric:normal;font-feature-settings:normal;text-align:center;writing-mode:lr-tb;text-anchor:middle;fill:#d40000;stroke:none;stroke-width:0;"
         id="tspan7794">Inside right</tspan></text>
    <text
       transform="translate(0,-87)"
       xml:space="preserve"
       x="147"
       y="182"
       id="text7802"><tspan
         sodipodi:role="line"
         id="tspan7798"
         x="147"
         y="182"
         style="font-style:normal;font-variant:normal;font-weight:normal;font-stretch:normal;font-size:10px;line-height:11px;font-family:sans-serif;-inkscape-font-specification:'sans-serif, Normal';font-variant-ligatures:normal;font-variant-caps:normal;font-variant-numeric:normal;font-feature-settings:normal;text-align:center;writing-mode:lr-tb;text-anchor:middle;fill:#d40000;stroke:none;stroke-width:0;">page 3</tspan><tspan
         sodipodi:role="line"
         x="147"
         y="198"
         style="font-style:normal;font-variant:normal;font-weight:normal;font-stretch:normal;font-size:10px;line-height:11px;font-family:sans-serif;-inkscape-font-specification:'sans-serif, Normal';font-variant-ligatures:normal;font-variant-caps:normal;font-variant-numeric:normal;font-feature-settings:normal;text-align:center;writing-mode:lr-tb;text-anchor:middle;fill:#d40000;stroke:none;stroke-width:0;"
         id="tspan7800">Inside center</tspan></text>
    <text
       transform="translate(0,-87)"
       id="text7808"
       y="182"
       x="50"
       xml:space="preserve"><tspan
         style="font-style:normal;font-variant:normal;font-weight:normal;font-stretch:normal;font-size:10px;line-height:11px;font-family:sans-serif;-inkscape-font-specification:'sans-serif, Normal';font-variant-ligatures:normal;font-variant-caps:normal;font-variant-numeric:normal;font-feature-settings:normal;text-align:center;writing-mode:lr-tb;text-anchor:middle;fill:#d40000;stroke:none;stroke-width:0;"
         y="182"
         x="50"
         id="tspan7804"
         sodipodi:role="line">page 2</tspan><tspan
         style="font-style:normal;font-variant:normal;font-weight:normal;font-stretch:normal;font-size:10px;line-height:11px;font-family:sans-serif;-inkscape-font-specification:'sans-serif, Normal';font-variant-ligatures:normal;font-variant-caps:normal;font-variant-numeric:normal;font-feature-settings:normal;text-align:center;writing-mode:lr-tb;text-anchor:middle;fill:#d40000;stroke:none;stroke-width:0;"
         y="198"
         x="50"
         sodipodi:role="line"
         id="tspan7846">Inside left</tspan></text>
  </g>
  <g
     sodipodi:insensitive="true"
     inkscape:groupmode="layer"
     inkscape:label="Printing Marks"
     id="printing-marks">
    <g
       inkscape:label="CropMarks"
       id="CropMarks">
      <path
         style="stroke:#000000;stroke-width:0.25;fill:none"
         id="cropTL1"
         d="M 0,-5.0 L 0,-15.0" />
      <path
         style="stroke:#000000;stroke-width:0.25;fill:none"
         id="cropTL2"
         d="M -5.0,0 L -15.0,0" />
      <path
         style="stroke:#000000;stroke-width:0.25;fill:none"
         id="cropTR1"
         d="M 297.0,-5.0 L 297.0,-15.0" />
      <path
         style="stroke:#000000;stroke-width:0.25;fill:none"
         id="cropTR2"
         d="M 302.0,0 L 312.0,0" />
      <path
         style="stroke:#000000;stroke-width:0.25;fill:none"
         id="cropBL1"
         d="M 0,215.0 L 0,225.0" />
      <path
         style="stroke:#000000;stroke-width:0.25;fill:none"
         id="cropBL2"
         d="M -5.0,210.0 L -15.0,210.0" />
      <path
         style="stroke:#000000;stroke-width:0.25;fill:none"
         id="cropBR1"
         d="M 297.0,215.0 L 297.0,225.0" />
      <path
         style="stroke:#000000;stroke-width:0.25;fill:none"
         id="cropBR2"
         d="M 302.0,210.0 L 312.0,210.0" />
    </g>
    <g
       inkscape:label="BleedMarks"
       id="BleedMarks">
      <path
         style="stroke-dashoffset:0;stroke:#000000;stroke-dasharray:4, 2, 1, 2;stroke-miterlimit:4;stroke-width:0.25;fill:none"
         id="bleedTL1"
         d="M -5.0,-5.0 L -5.0,-15.0" />
      <path
         style="stroke-dashoffset:0;stroke:#000000;stroke-dasharray:4, 2, 1, 2;stroke-miterlimit:4;stroke-width:0.25;fill:none"
         id="bleedTL2"
         d="M -5.0,-5.0 L -15.0,-5.0" />
      <path
         style="stroke-dashoffset:0;stroke:#000000;stroke-dasharray:4, 2, 1, 2;stroke-miterlimit:4;stroke-width:0.25;fill:none"
         id="bleedTR1"
         d="M 302.0,-5.0 L 302.0,-15.0" />
      <path
         style="stroke-dashoffset:0;stroke:#000000;stroke-dasharray:4, 2, 1, 2;stroke-miterlimit:4;stroke-width:0.25;fill:none"
         id="bleedTR2"
         d="M 302.0,-5.0 L 312.0,-5.0" />
      <path
         style="stroke-dashoffset:0;stroke:#000000;stroke-dasharray:4, 2, 1, 2;stroke-miterlimit:4;stroke-width:0.25;fill:none"
         id="bleedBL1"
         d="M -5.0,215.0 L -5.0,225.0" />
      <path
         style="stroke-dashoffset:0;stroke:#000000;stroke-dasharray:4, 2, 1, 2;stroke-miterlimit:4;stroke-width:0.25;fill:none"
         id="bleedBL2"
         d="M -5.0,215.0 L -15.0,215.0" />
      <path
         style="stroke-dashoffset:0;stroke:#000000;stroke-dasharray:4, 2, 1, 2;stroke-miterlimit:4;stroke-width:0.25;fill:none"
         id="bleedBR1"
         d="M 302.0,215.0 L 302.0,225.0" />
      <path
         style="stroke-dashoffset:0;stroke:#000000;stroke-dasharray:4, 2, 1, 2;stroke-miterlimit:4;stroke-width:0.25;fill:none"
         id="bleedBR2"
         d="M 302.0,215.0 L 312.0,215.0" />
    </g>
    <g
       inkscape:label="RegistrationMarks"
       id="RegistrationMarks">
      <g
         id="regMarkL">
        <path
           id="path4503"
           transform="translate(-10.0,90.0) rotate(0)"
           style="stroke:none;fill-opacity:1;fill:#000000"
           d="m -0.0,5.0 -1.0,0 5.0,-5.0 -5.0,-5.0 1.0,0 5.0,5.0 -5.0,5.0 z" />
        <path
           id="path4505"
           transform="translate(-10.0,90.0) rotate(0)"
           style="stroke:none;fill-opacity:1;fill:#00ffff"
           d="m -1.0,5.0 -1.0,0 5.0,-5.0 -5.0,-5.0 1.0,0 5.0,5.0 -5.0,5.0 z" />
        <path
           id="path4507"
           transform="translate(-10.0,90.0) rotate(0)"
           style="stroke:none;fill-opacity:1;fill:#ff00ff"
           d="m -2.0,5.0 -1.0,0 5.0,-5.0 -5.0,-5.0 1.0,0 5.0,5.0 -5.0,5.0 z" />
        <path
           id="path4509"
           transform="translate(-10.0,90.0) rotate(0)"
           style="stroke:none;fill-opacity:1;fill:#ffff00"
           d="m -3.0,5.0 -1.0,0 5.0,-5.0 -5.0,-5.0 1.0,0 5.0,5.0 -5.0,5.0 z" />
        <path
           id="path4511"
           transform="translate(-10.0,90.0) rotate(0)"
           style="stroke:none;fill-opacity:1;fill:#000000"
           d="m -4.0,5.0 -1.0,0 5.0,-5.0 -5.0,-5.0 1.0,0 5.0,5.0 -5.0,5.0 z" />
      </g>
      <g
         id="regMarkR">
        <path
           id="path4514"
           transform="translate(307.0,90.0) rotate(180)"
           style="stroke:none;fill-opacity:1;fill:#000000"
           d="m -0.0,5.0 -1.0,0 5.0,-5.0 -5.0,-5.0 1.0,0 5.0,5.0 -5.0,5.0 z" />
        <path
           id="path4516"
           transform="translate(307.0,90.0) rotate(180)"
           style="stroke:none;fill-opacity:1;fill:#00ffff"
           d="m -1.0,5.0 -1.0,0 5.0,-5.0 -5.0,-5.0 1.0,0 5.0,5.0 -5.0,5.0 z" />
        <path
           id="path4518"
           transform="translate(307.0,90.0) rotate(180)"
           style="stroke:none;fill-opacity:1;fill:#ff00ff"
           d="m -2.0,5.0 -1.0,0 5.0,-5.0 -5.0,-5.0 1.0,0 5.0,5.0 -5.0,5.0 z" />
        <path
           id="path4520"
           transform="translate(307.0,90.0) rotate(180)"
           style="stroke:none;fill-opacity:1;fill:#ffff00"
           d="m -3.0,5.0 -1.0,0 5.0,-5.0 -5.0,-5.0 1.0,0 5.0,5.0 -5.0,5.0 z" />
        <path
           id="path4522"
           transform="translate(307.0,90.0) rotate(180)"
           style="stroke:none;fill-opacity:1;fill:#000000"
           d="m -4.0,5.0 -1.0,0 5.0,-5.0 -5.0,-5.0 1.0,0 5.0,5.0 -5.0,5.0 z" />
      </g>
      <g
         id="regMarkT">
        <path
           id="path4525"
           transform="translate(148.5,-10.0) rotate(90)"
           style="stroke:none;fill-opacity:1;fill:#000000"
           d="m -0.0,5.0 -1.0,0 5.0,-5.0 -5.0,-5.0 1.0,0 5.0,5.0 -5.0,5.0 z" />
        <path
           id="path4527"
           transform="translate(148.5,-10.0) rotate(90)"
           style="stroke:none;fill-opacity:1;fill:#00ffff"
           d="m -1.0,5.0 -1.0,0 5.0,-5.0 -5.0,-5.0 1.0,0 5.0,5.0 -5.0,5.0 z" />
        <path
           id="path4529"
           transform="translate(148.5,-10.0) rotate(90)"
           style="stroke:none;fill-opacity:1;fill:#ff00ff"
           d="m -2.0,5.0 -1.0,0 5.0,-5.0 -5.0,-5.0 1.0,0 5.0,5.0 -5.0,5.0 z" />
        <path
           id="path4531"
           transform="translate(148.5,-10.0) rotate(90)"
           style="stroke:none;fill-opacity:1;fill:#ffff00"
           d="m -3.0,5.0 -1.0,0 5.0,-5.0 -5.0,-5.0 1.0,0 5.0,5.0 -5.0,5.0 z" />
        <path
           id="path4533"
           transform="translate(148.5,-10.0) rotate(90)"
           style="stroke:none;fill-opacity:1;fill:#000000"
           d="m -4.0,5.0 -1.0,0 5.0,-5.0 -5.0,-5.0 1.0,0 5.0,5.0 -5.0,5.0 z" />
      </g>
      <g
         id="regMarkB">
        <path
           id="path4536"
           transform="translate(148.5,220.0) rotate(-90)"
           style="stroke:none;fill-opacity:1;fill:#000000"
           d="m -0.0,5.0 -1.0,0 5.0,-5.0 -5.0,-5.0 1.0,0 5.0,5.0 -5.0,5.0 z" />
        <path
           id="path4538"
           transform="translate(148.5,220.0) rotate(-90)"
           style="stroke:none;fill-opacity:1;fill:#00ffff"
           d="m -1.0,5.0 -1.0,0 5.0,-5.0 -5.0,-5.0 1.0,0 5.0,5.0 -5.0,5.0 z" />
        <path
           id="path4540"
           transform="translate(148.5,220.0) rotate(-90)"
           style="stroke:none;fill-opacity:1;fill:#ff00ff"
           d="m -2.0,5.0 -1.0,0 5.0,-5.0 -5.0,-5.0 1.0,0 5.0,5.0 -5.0,5.0 z" />
        <path
           id="path4542"
           transform="translate(148.5,220.0) rotate(-90)"
           style="stroke:none;fill-opacity:1;fill:#ffff00"
           d="m -3.0,5.0 -1.0,0 5.0,-5.0 -5.0,-5.0 1.0,0 5.0,5.0 -5.0,5.0 z" />
        <path
           id="path4544"
           transform="translate(148.5,220.0) rotate(-90)"
           style="stroke:none;fill-opacity:1;fill:#000000"
           d="m -4.0,5.0 -1.0,0 5.0,-5.0 -5.0,-5.0 1.0,0 5.0,5.0 -5.0,5.0 z" />
      </g>
    </g>
    <g
       inkscape:label="ColourBars"
       id="PrintingColourBars">
      <g
         transform="translate(158.5,-10.0) rotate(0)"
         id="PrintingColourBarsT">
        <rect
           id="rect4548"
           y="-4.33333333333"
           x="0.0"
           width="3.33333333333"
           stroke-width="0.5"
           stroke="#000"
           height="3.33333333333"
           fill="rgb(0,0,0)" />
        <rect
           id="rect4550"
           y="-4.33333333333"
           x="3.33333333333"
           width="3.33333333333"
           stroke-width="0.5"
           stroke="#000"
           height="3.33333333333"
           fill="rgb(25.5,25.5,25.5)" />
        <rect
           id="rect4552"
           y="-4.33333333333"
           x="6.66666666667"
           width="3.33333333333"
           stroke-width="0.5"
           stroke="#000"
           height="3.33333333333"
           fill="rgb(51.0,51.0,51.0)" />
        <rect
           id="rect4554"
           y="-4.33333333333"
           x="10.0"
           width="3.33333333333"
           stroke-width="0.5"
           stroke="#000"
           height="3.33333333333"
           fill="rgb(76.5,76.5,76.5)" />
        <rect
           id="rect4556"
           y="-4.33333333333"
           x="13.3333333333"
           width="3.33333333333"
           stroke-width="0.5"
           stroke="#000"
           height="3.33333333333"
           fill="rgb(102.0,102.0,102.0)" />
        <rect
           id="rect4558"
           y="-4.33333333333"
           x="16.6666666667"
           width="3.33333333333"
           stroke-width="0.5"
           stroke="#000"
           height="3.33333333333"
           fill="rgb(127.5,127.5,127.5)" />
        <rect
           id="rect4560"
           y="-4.33333333333"
           x="20.0"
           width="3.33333333333"
           stroke-width="0.5"
           stroke="#000"
           height="3.33333333333"
           fill="rgb(153.0,153.0,153.0)" />
        <rect
           id="rect4562"
           y="-4.33333333333"
           x="23.3333333333"
           width="3.33333333333"
           stroke-width="0.5"
           stroke="#000"
           height="3.33333333333"
           fill="rgb(178.5,178.5,178.5)" />
        <rect
           id="rect4564"
           y="-4.33333333333"
           x="26.6666666667"
           width="3.33333333333"
           stroke-width="0.5"
           stroke="#000"
           height="3.33333333333"
           fill="rgb(204.0,204.0,204.0)" />
        <rect
           id="rect4566"
           y="-4.33333333333"
           x="30.0"
           width="3.33333333333"
           stroke-width="0.5"
           stroke="#000"
           height="3.33333333333"
           fill="rgb(229.5,229.5,229.5)" />
        <rect
           id="rect4568"
           y="-4.33333333333"
           x="33.3333333333"
           width="3.33333333333"
           stroke-width="0.5"
           stroke="#000"
           height="3.33333333333"
           fill="rgb(255.0,255.0,255.0)" />
        <rect
           id="rect4570"
           y="0"
           x="0.0"
           width="3.33333333333"
           stroke-width="0.5"
           stroke="#0FF"
           height="3.33333333333"
           fill="rgb(0,255,255)" />
        <rect
           id="rect4572"
           y="0"
           x="3.33333333333"
           width="3.33333333333"
           stroke-width="0.5"
           stroke="#0FF"
           height="3.33333333333"
           fill="rgb(25.5,255,255)" />
        <rect
           id="rect4574"
           y="0"
           x="6.66666666667"
           width="3.33333333333"
           stroke-width="0.5"
           stroke="#0FF"
           height="3.33333333333"
           fill="rgb(51.0,255,255)" />
        <rect
           id="rect4576"
           y="0"
           x="10.0"
           width="3.33333333333"
           stroke-width="0.5"
           stroke="#0FF"
           height="3.33333333333"
           fill="rgb(76.5,255,255)" />
        <rect
           id="rect4578"
           y="0"
           x="13.3333333333"
           width="3.33333333333"
           stroke-width="0.5"
           stroke="#0FF"
           height="3.33333333333"
           fill="rgb(102.0,255,255)" />
        <rect
           id="rect4580"
           y="0"
           x="16.6666666667"
           width="3.33333333333"
           stroke-width="0.5"
           stroke="#0FF"
           height="3.33333333333"
           fill="rgb(127.5,255,255)" />
        <rect
           id="rect4582"
           y="0"
           x="20.0"
           width="3.33333333333"
           stroke-width="0.5"
           stroke="#0FF"
           height="3.33333333333"
           fill="rgb(153.0,255,255)" />
        <rect
           id="rect4584"
           y="0"
           x="23.3333333333"
           width="3.33333333333"
           stroke-width="0.5"
           stroke="#0FF"
           height="3.33333333333"
           fill="rgb(178.5,255,255)" />
        <rect
           id="rect4586"
           y="0"
           x="26.6666666667"
           width="3.33333333333"
           stroke-width="0.5"
           stroke="#0FF"
           height="3.33333333333"
           fill="rgb(204.0,255,255)" />
        <rect
           id="rect4588"
           y="0"
           x="30.0"
           width="3.33333333333"
           stroke-width="0.5"
           stroke="#0FF"
           height="3.33333333333"
           fill="rgb(229.5,255,255)" />
        <rect
           id="rect4590"
           y="0"
           x="33.3333333333"
           width="3.33333333333"
           stroke-width="0.5"
           stroke="#0FF"
           height="3.33333333333"
           fill="rgb(255.0,255,255)" />
        <rect
           id="rect4592"
           y="-4.33333333333"
           x="37.6666666667"
           width="3.33333333333"
           stroke-width="0.5"
           stroke="#F0F"
           height="3.33333333333"
           fill="rgb(255,0,255)" />
        <rect
           id="rect4594"
           y="-4.33333333333"
           x="41.0"
           width="3.33333333333"
           stroke-width="0.5"
           stroke="#F0F"
           height="3.33333333333"
           fill="rgb(255,25.5,255)" />
        <rect
           id="rect4596"
           y="-4.33333333333"
           x="44.3333333333"
           width="3.33333333333"
           stroke-width="0.5"
           stroke="#F0F"
           height="3.33333333333"
           fill="rgb(255,51.0,255)" />
        <rect
           id="rect4598"
           y="-4.33333333333"
           x="47.6666666667"
           width="3.33333333333"
           stroke-width="0.5"
           stroke="#F0F"
           height="3.33333333333"
           fill="rgb(255,76.5,255)" />
        <rect
           id="rect4600"
           y="-4.33333333333"
           x="51.0"
           width="3.33333333333"
           stroke-width="0.5"
           stroke="#F0F"
           height="3.33333333333"
           fill="rgb(255,102.0,255)" />
        <rect
           id="rect4602"
           y="-4.33333333333"
           x="54.3333333333"
           width="3.33333333333"
           stroke-width="0.5"
           stroke="#F0F"
           height="3.33333333333"
           fill="rgb(255,127.5,255)" />
        <rect
           id="rect4604"
           y="-4.33333333333"
           x="57.6666666667"
           width="3.33333333333"
           stroke-width="0.5"
           stroke="#F0F"
           height="3.33333333333"
           fill="rgb(255,153.0,255)" />
        <rect
           id="rect4606"
           y="-4.33333333333"
           x="61.0"
           width="3.33333333333"
           stroke-width="0.5"
           stroke="#F0F"
           height="3.33333333333"
           fill="rgb(255,178.5,255)" />
        <rect
           id="rect4608"
           y="-4.33333333333"
           x="64.3333333333"
           width="3.33333333333"
           stroke-width="0.5"
           stroke="#F0F"
           height="3.33333333333"
           fill="rgb(255,204.0,255)" />
        <rect
           id="rect4610"
           y="-4.33333333333"
           x="67.6666666667"
           width="3.33333333333"
           stroke-width="0.5"
           stroke="#F0F"
           height="3.33333333333"
           fill="rgb(255,229.5,255)" />
        <rect
           id="rect4612"
           y="-4.33333333333"
           x="71.0"
           width="3.33333333333"
           stroke-width="0.5"
           stroke="#F0F"
           height="3.33333333333"
           fill="rgb(255,255.0,255)" />
        <rect
           id="rect4614"
           y="0"
           x="37.6666666667"
           width="3.33333333333"
           stroke-width="0.5"
           stroke="#FF0"
           height="3.33333333333"
           fill="rgb(255,255,0)" />
        <rect
           id="rect4616"
           y="0"
           x="41.0"
           width="3.33333333333"
           stroke-width="0.5"
           stroke="#FF0"
           height="3.33333333333"
           fill="rgb(255,255,25.5)" />
        <rect
           id="rect4618"
           y="0"
           x="44.3333333333"
           width="3.33333333333"
           stroke-width="0.5"
           stroke="#FF0"
           height="3.33333333333"
           fill="rgb(255,255,51.0)" />
        <rect
           id="rect4620"
           y="0"
           x="47.6666666667"
           width="3.33333333333"
           stroke-width="0.5"
           stroke="#FF0"
           height="3.33333333333"
           fill="rgb(255,255,76.5)" />
        <rect
           id="rect4622"
           y="0"
           x="51.0"
           width="3.33333333333"
           stroke-width="0.5"
           stroke="#FF0"
           height="3.33333333333"
           fill="rgb(255,255,102.0)" />
        <rect
           id="rect4624"
           y="0"
           x="54.3333333333"
           width="3.33333333333"
           stroke-width="0.5"
           stroke="#FF0"
           height="3.33333333333"
           fill="rgb(255,255,127.5)" />
        <rect
           id="rect4626"
           y="0"
           x="57.6666666667"
           width="3.33333333333"
           stroke-width="0.5"
           stroke="#FF0"
           height="3.33333333333"
           fill="rgb(255,255,153.0)" />
        <rect
           id="rect4628"
           y="0"
           x="61.0"
           width="3.33333333333"
           stroke-width="0.5"
           stroke="#FF0"
           height="3.33333333333"
           fill="rgb(255,255,178.5)" />
        <rect
           id="rect4630"
           y="0"
           x="64.3333333333"
           width="3.33333333333"
           stroke-width="0.5"
           stroke="#FF0"
           height="3.33333333333"
           fill="rgb(255,255,204.0)" />
        <rect
           id="rect4632"
           y="0"
           x="67.6666666667"
           width="3.33333333333"
           stroke-width="0.5"
           stroke="#FF0"
           height="3.33333333333"
           fill="rgb(255,255,229.5)" />
        <rect
           id="rect4634"
           y="0"
           x="71.0"
           width="3.33333333333"
           stroke-width="0.5"
           stroke="#FF0"
           height="3.33333333333"
           fill="rgb(255,255,255.0)" />
      </g>
      <g
         transform="translate(158.5,220.0) rotate(0)"
         id="PrintingColourBarsB">
        <rect
           id="rect4637"
           y="-4.33333333333"
           x="0.0"
           width="3.33333333333"
           stroke-width="0.5"
           stroke="#000"
           height="3.33333333333"
           fill="rgb(0,0,0)" />
        <rect
           id="rect4639"
           y="-4.33333333333"
           x="3.33333333333"
           width="3.33333333333"
           stroke-width="0.5"
           stroke="#000"
           height="3.33333333333"
           fill="rgb(25.5,25.5,25.5)" />
        <rect
           id="rect4641"
           y="-4.33333333333"
           x="6.66666666667"
           width="3.33333333333"
           stroke-width="0.5"
           stroke="#000"
           height="3.33333333333"
           fill="rgb(51.0,51.0,51.0)" />
        <rect
           id="rect4643"
           y="-4.33333333333"
           x="10.0"
           width="3.33333333333"
           stroke-width="0.5"
           stroke="#000"
           height="3.33333333333"
           fill="rgb(76.5,76.5,76.5)" />
        <rect
           id="rect4645"
           y="-4.33333333333"
           x="13.3333333333"
           width="3.33333333333"
           stroke-width="0.5"
           stroke="#000"
           height="3.33333333333"
           fill="rgb(102.0,102.0,102.0)" />
        <rect
           id="rect4647"
           y="-4.33333333333"
           x="16.6666666667"
           width="3.33333333333"
           stroke-width="0.5"
           stroke="#000"
           height="3.33333333333"
           fill="rgb(127.5,127.5,127.5)" />
        <rect
           id="rect4649"
           y="-4.33333333333"
           x="20.0"
           width="3.33333333333"
           stroke-width="0.5"
           stroke="#000"
           height="3.33333333333"
           fill="rgb(153.0,153.0,153.0)" />
        <rect
           id="rect4651"
           y="-4.33333333333"
           x="23.3333333333"
           width="3.33333333333"
           stroke-width="0.5"
           stroke="#000"
           height="3.33333333333"
           fill="rgb(178.5,178.5,178.5)" />
        <rect
           id="rect4653"
           y="-4.33333333333"
           x="26.6666666667"
           width="3.33333333333"
           stroke-width="0.5"
           stroke="#000"
           height="3.33333333333"
           fill="rgb(204.0,204.0,204.0)" />
        <rect
           id="rect4655"
           y="-4.33333333333"
           x="30.0"
           width="3.33333333333"
           stroke-width="0.5"
           stroke="#000"
           height="3.33333333333"
           fill="rgb(229.5,229.5,229.5)" />
        <rect
           id="rect4657"
           y="-4.33333333333"
           x="33.3333333333"
           width="3.33333333333"
           stroke-width="0.5"
           stroke="#000"
           height="3.33333333333"
           fill="rgb(255.0,255.0,255.0)" />
        <rect
           id="rect4659"
           y="0"
           x="0.0"
           width="3.33333333333"
           stroke-width="0.5"
           stroke="#0FF"
           height="3.33333333333"
           fill="rgb(0,255,255)" />
        <rect
           id="rect4661"
           y="0"
           x="3.33333333333"
           width="3.33333333333"
           stroke-width="0.5"
           stroke="#0FF"
           height="3.33333333333"
           fill="rgb(25.5,255,255)" />
        <rect
           id="rect4663"
           y="0"
           x="6.66666666667"
           width="3.33333333333"
           stroke-width="0.5"
           stroke="#0FF"
           height="3.33333333333"
           fill="rgb(51.0,255,255)" />
        <rect
           id="rect4665"
           y="0"
           x="10.0"
           width="3.33333333333"
           stroke-width="0.5"
           stroke="#0FF"
           height="3.33333333333"
           fill="rgb(76.5,255,255)" />
        <rect
           id="rect4667"
           y="0"
           x="13.3333333333"
           width="3.33333333333"
           stroke-width="0.5"
           stroke="#0FF"
           height="3.33333333333"
           fill="rgb(102.0,255,255)" />
        <rect
           id="rect4669"
           y="0"
           x="16.6666666667"
           width="3.33333333333"
           stroke-width="0.5"
           stroke="#0FF"
           height="3.33333333333"
           fill="rgb(127.5,255,255)" />
        <rect
           id="rect4671"
           y="0"
           x="20.0"
           width="3.33333333333"
           stroke-width="0.5"
           stroke="#0FF"
           height="3.33333333333"
           fill="rgb(153.0,255,255)" />
        <rect
           id="rect4673"
           y="0"
           x="23.3333333333"
           width="3.33333333333"
           stroke-width="0.5"
           stroke="#0FF"
           height="3.33333333333"
           fill="rgb(178.5,255,255)" />
        <rect
           id="rect4675"
           y="0"
           x="26.6666666667"
           width="3.33333333333"
           stroke-width="0.5"
           stroke="#0FF"
           height="3.33333333333"
           fill="rgb(204.0,255,255)" />
        <rect
           id="rect4677"
           y="0"
           x="30.0"
           width="3.33333333333"
           stroke-width="0.5"
           stroke="#0FF"
           height="3.33333333333"
           fill="rgb(229.5,255,255)" />
        <rect
           id="rect4679"
           y="0"
           x="33.3333333333"
           width="3.33333333333"
           stroke-width="0.5"
           stroke="#0FF"
           height="3.33333333333"
           fill="rgb(255.0,255,255)" />
        <rect
           id="rect4681"
           y="-4.33333333333"
           x="37.6666666667"
           width="3.33333333333"
           stroke-width="0.5"
           stroke="#F0F"
           height="3.33333333333"
           fill="rgb(255,0,255)" />
        <rect
           id="rect4683"
           y="-4.33333333333"
           x="41.0"
           width="3.33333333333"
           stroke-width="0.5"
           stroke="#F0F"
           height="3.33333333333"
           fill="rgb(255,25.5,255)" />
        <rect
           id="rect4685"
           y="-4.33333333333"
           x="44.3333333333"
           width="3.33333333333"
           stroke-width="0.5"
           stroke="#F0F"
           height="3.33333333333"
           fill="rgb(255,51.0,255)" />
        <rect
           id="rect4687"
           y="-4.33333333333"
           x="47.6666666667"
           width="3.33333333333"
           stroke-width="0.5"
           stroke="#F0F"
           height="3.33333333333"
           fill="rgb(255,76.5,255)" />
        <rect
           id="rect4689"
           y="-4.33333333333"
           x="51.0"
           width="3.33333333333"
           stroke-width="0.5"
           stroke="#F0F"
           height="3.33333333333"
           fill="rgb(255,102.0,255)" />
        <rect
           id="rect4691"
           y="-4.33333333333"
           x="54.3333333333"
           width="3.33333333333"
           stroke-width="0.5"
           stroke="#F0F"
           height="3.33333333333"
           fill="rgb(255,127.5,255)" />
        <rect
           id="rect4693"
           y="-4.33333333333"
           x="57.6666666667"
           width="3.33333333333"
           stroke-width="0.5"
           stroke="#F0F"
           height="3.33333333333"
           fill="rgb(255,153.0,255)" />
        <rect
           id="rect4695"
           y="-4.33333333333"
           x="61.0"
           width="3.33333333333"
           stroke-width="0.5"
           stroke="#F0F"
           height="3.33333333333"
           fill="rgb(255,178.5,255)" />
        <rect
           id="rect4697"
           y="-4.33333333333"
           x="64.3333333333"
           width="3.33333333333"
           stroke-width="0.5"
           stroke="#F0F"
           height="3.33333333333"
           fill="rgb(255,204.0,255)" />
        <rect
           id="rect4699"
           y="-4.33333333333"
           x="67.6666666667"
           width="3.33333333333"
           stroke-width="0.5"
           stroke="#F0F"
           height="3.33333333333"
           fill="rgb(255,229.5,255)" />
        <rect
           id="rect4701"
           y="-4.33333333333"
           x="71.0"
           width="3.33333333333"
           stroke-width="0.5"
           stroke="#F0F"
           height="3.33333333333"
           fill="rgb(255,255.0,255)" />
        <rect
           id="rect4703"
           y="0"
           x="37.6666666667"
           width="3.33333333333"
           stroke-width="0.5"
           stroke="#FF0"
           height="3.33333333333"
           fill="rgb(255,255,0)" />
        <rect
           id="rect4705"
           y="0"
           x="41.0"
           width="3.33333333333"
           stroke-width="0.5"
           stroke="#FF0"
           height="3.33333333333"
           fill="rgb(255,255,25.5)" />
        <rect
           id="rect4707"
           y="0"
           x="44.3333333333"
           width="3.33333333333"
           stroke-width="0.5"
           stroke="#FF0"
           height="3.33333333333"
           fill="rgb(255,255,51.0)" />
        <rect
           id="rect4709"
           y="0"
           x="47.6666666667"
           width="3.33333333333"
           stroke-width="0.5"
           stroke="#FF0"
           height="3.33333333333"
           fill="rgb(255,255,76.5)" />
        <rect
           id="rect4711"
           y="0"
           x="51.0"
           width="3.33333333333"
           stroke-width="0.5"
           stroke="#FF0"
           height="3.33333333333"
           fill="rgb(255,255,102.0)" />
        <rect
           id="rect4713"
           y="0"
           x="54.3333333333"
           width="3.33333333333"
           stroke-width="0.5"
           stroke="#FF0"
           height="3.33333333333"
           fill="rgb(255,255,127.5)" />
        <rect
           id="rect4715"
           y="0"
           x="57.6666666667"
           width="3.33333333333"
           stroke-width="0.5"
           stroke="#FF0"
           height="3.33333333333"
           fill="rgb(255,255,153.0)" />
        <rect
           id="rect4717"
           y="0"
           x="61.0"
           width="3.33333333333"
           stroke-width="0.5"
           stroke="#FF0"
           height="3.33333333333"
           fill="rgb(255,255,178.5)" />
        <rect
           id="rect4719"
           y="0"
           x="64.3333333333"
           width="3.33333333333"
           stroke-width="0.5"
           stroke="#FF0"
           height="3.33333333333"
           fill="rgb(255,255,204.0)" />
        <rect
           id="rect4721"
           y="0"
           x="67.6666666667"
           width="3.33333333333"
           stroke-width="0.5"
           stroke="#FF0"
           height="3.33333333333"
           fill="rgb(255,255,229.5)" />
        <rect
           id="rect4723"
           y="0"
           x="71.0"
           width="3.33333333333"
           stroke-width="0.5"
           stroke="#FF0"
           height="3.33333333333"
           fill="rgb(255,255,255.0)" />
      </g>
    </g>
  </g>
</svg>